<svg version="1.1" id="Layer_1" xmlns="http://www.w3.org/2000/svg" xmlns:xlink="http://www.w3.org/1999/xlink" x="0px" y="0px" viewBox="177.17333984375 88.1511001586914 435.111083984375 435.1111145019531" style="enable-background:new 0 0 792 612;" xml:space="preserve"  width="100%" height="100%" preserveAspectRatio="xMidYMid meet"><rect id="svgEditorBackground" x="0" y="0" width="792" height="612" style="fill: none; stroke: none;"/>
<style type="text/css">
	.st0{fill:#FFFFFF;}
	.st1{fill:#414141;}
	.st2{fill:url(#SVGID_1_);}
	.st3{fill:url(#SVGID_2_);}
	.st4{fill:url(#SVGID_3_);}
	.st5{fill:none;}
	.st6{fill:url(#SVGID_6_);}
	.st7{fill:url(#SVGID_7_);}
	.st8{fill:url(#SVGID_8_);}
	.st9{fill:url(#SVGID_9_);}
	.st10{fill:url(#SVGID_10_);}
	.st11{fill:url(#SVGID_11_);}
	.st12{fill:url(#SVGID_12_);}
	.st13{fill:url(#SVGID_13_);}
	.st14{fill:url(#SVGID_14_);}
	.st15{fill:url(#SVGID_15_);}
	.st16{fill:url(#SVGID_16_);}
	.st17{fill:url(#SVGID_17_);}
	.st18{fill:url(#SVGID_18_);}
	.st19{fill:url(#SVGID_19_);}
	.st20{fill:url(#SVGID_20_);}
</style>
<g>
	<path class="st0" d="M543.9,160.4c0,0-25.2-24.2-31.6-29c-6.4-4.9-40.2-21.5-40.2-21.5c-23.9-10-50.2-15.6-77.6-15.6   c-113.6,0-205.8,94.6-205.8,211.4c0,116.7,92.1,211.3,205.8,211.3c113.6,0,205.7-94.6,205.7-211.3   C600.2,249.4,578.8,198.3,543.9,160.4z"/>
	<polyline class="st1" points="352.8,320.6 353,320.6 353.4,320.7 352.8,320.6  "/>

		<radialGradient id="SVGID_1_" cx="81.4627" cy="547.2168" r="4.8285" gradientTransform="matrix(41.205 0 0 -41.205 -2920.0291 22784.9023)" gradientUnits="userSpaceOnUse">
		<stop offset="0" style="stop-color:#FFFFFF;stop-opacity:0.5"/>
		<stop offset="1" style="stop-color:#BCBEC0;stop-opacity:0.5"/>
	</radialGradient>
	<path class="st2" d="M543.9,160.4c0,0-25.2-24.2-31.6-29c-6.4-4.9-40.2-21.5-40.2-21.5c-23.9-10-50.2-15.6-77.6-15.6   c-113.6,0-205.8,94.6-205.8,211.4c0,116.7,92.1,211.3,205.8,211.3c113.6,0,205.7-94.6,205.7-211.3   C600.2,249.4,578.8,198.3,543.9,160.4z"/>
	<polygon class="st1" points="436.3,386.9 435.7,386.8 435.2,386.9  "/>

		<radialGradient id="SVGID_2_" cx="80.2428" cy="545.6686" r="4.83" gradientTransform="matrix(33.5448 0 0 -33.5448 -2359.428 18618.3906)" gradientUnits="userSpaceOnUse">
		<stop offset="0" style="stop-color:#000000"/>
		<stop offset="8.715600e-002" style="stop-color:#000000"/>
		<stop offset="1" style="stop-color:#000000"/>
	</radialGradient>
	<path class="st3" d="M288.5,318.5l4.8-4.4l-3.8-5.9l-6.3-3.5l-1,0.2c-3.8,1.1-4.3,1.5-2.7,7.7C283.6,312.3,283.6,312.3,288.5,318.5    M258.8,296.8l1.2,0.3c-0.2-1.6-0.8-6.5-5.4-6.5c-2.8-0.1-4.4-0.2-7-0.6C248.4,291.3,250.6,294.5,258.8,296.8 M270.8,304.5l2.1-1.8   c-0.8-0.3-1.7-1.3-3.6-3.8c-3.5-4.7-3.6-4.8-9.3-1.7C263.1,302.7,263.1,302.7,270.8,304.5 M204.3,258.9L204.3,258.9L204.3,258.9   L204.3,258.9 M375,228l4.4-5l-11.2-2l0.1,0.1C368.3,221.1,374,225.7,375,228 M255.8,154.1l0.9-0.6l0.5-0.5l0.4-0.7l-0.9,0.8   l0.2-0.2l0.6-0.7l-1,0.8l0.2-0.3l-0.8,0.7l-1,1.1L255.8,154.1 M466.2,165.9l0-0.7c-2.8-0.4-5.2-0.4-8.1,0.2   c-2.6,0.5-4.3,1.2-6.1,2.4c1.4,1,3.3,2.3,4.8,3.3C466.2,169.5,466.2,167.6,466.2,165.9 M311.6,226.6c-7,2.8-11.8,10.2-20.5,9.2   c1.2-3.3,3.5-6.1,3.6-9.8l4.9-3.4c-1.7,0.1-4.2-0.4-5.8,0.4c-0.1,0-3.6,3.1-6.9,6.4c-1.1,1.1-2.4,2.3-5.9,4c1-5.1,2.4-9.4,11.6-15   c-2.3-1.4-4.1-3.6-6.8-4.4c5.7-5.9,8.1-6.3,17-3.1c2,7.8,3.7,12.8,9,15.6L311.6,226.6 M413.1,409.6c0.1-1.1,0.1-2.6,0.1-3.6   c-0.3,0-32.2-1.2-51.5-19.6c-2.8,0.2-7,0.5-13.9,5.9c-1.7-1.2-4-2.8-5.7-3.9l4.7-4.9c-7.6-15.1-9.4-15.3-15.2-16.1   c-11.1-1.5-11.1-1.5-14.3-12.1l-2.6-2.7c-7.2-7-16.1-10.4-25.5-14.1l-6.3,0.6c-5.5-3.3-7.8-4.7-12.8-7.9c-7.3,7.1-9.7,5.5-25-4.7   c-0.1-1.3-4.4-8.7-12.7-13.7l-1.4-3.5c0.4-3.4,0.8-6.8,1.3-10.2c3.1-3.6,3.6-4.6,4.8-8.9c-3.8-0.3-6.2,1.1-10.7,6.5   c-1.9-0.8-3.7-1.7-5.5-2.5c-0.7-2.6-2.7-12-1.3-21.7c3.3-1.6,3.3-1.6,10-14c12.1,0.4,12.1,0.4,19.2,5.3c1.8-1,4.2-2.3,5.9-3.3   l1.8,5.9c2.3,0.2,2.8,0.2,6.4-1.1c-1.5,8.1,0.7,16.2,0.3,24.3c2.8-2.4,6.6-5.5,9.4-7.9l-3-6.5c1.1-3.8,1.8-6,5.2-12.1   c-0.4,1.6-0.9,3.3-1.3,4.9c4-2.8,8.9-4.1,13-6.8c3.4,0,6.1,0.5,8.9,1c8.8-10.6,8.8-10.6,11.4-13.2c14.6-6.5,14.6-6.5,52.6-16.8   c-3.6-0.8-3.6-0.8-6.4-4.1c1.4-1.5,3.2-3.5,4.6-5c-0.3-0.1-0.3-0.1-17,3c8.3-6.8,16.2-7.3,30.8-6.8c3.5,0.1,3.5,0.1,17.2-11.5   c-3.8,0.2-5,0.6-10.1,2.7c0.7-3.1,0.7-3.1,2.1-6.2c-0.9-1.7-2.1-3.9-3-5.6c0.9-2.9,0.9-2.9,2.6-6.1c-4.3-2.2-8-2-12.6-0.9   c-6.2-10.5-6.2-10.5-9.5-11.1c-0.1,1.8-0.2,4.2-0.3,6c-2.1-0.2-4.2-0.4-6.2-0.6c-7.9,9.1-17.4,16.7-25.5,25.8   c-4.2-4.9-6.6-19.8-6.9-24.8c2.5-1.3,5.8-3,8.3-4.2l6.3-3.3c20.2-12.7,20.2-12.7,27.6-9.3c1.7-1.6,3.9-3.6,5.7-5.1l-1.4-3.9   c-4,1.9-5.4,2.3-7.7,2.9c-2.2-4.5-0.7-9.3-1.3-13.9l-0.6-0.3c-7.9,14.7-7.9,14.7-16.5,14.3c-0.2-0.5-0.4-1.3-0.6-1.9   c-3.8-0.3-4.1-0.5-8-2c-1.8,0.8-4.1,1.8-5.8,2.6c0.2-0.5,0.6-1.3,0.8-1.8c-1.1-0.3-2.6-0.6-3.7-0.8c-0.2-1.3-0.4-3-0.5-4.3   c-17.1,8.7-17.2,8.5-19.7,5.6c7.9-1.6,8.8-1.8,17.8-6.2c-1.4-0.4-2.7-0.8-4-1.2l1.5-3.8c-1.7-0.6-3.3-1.2-4.9-1.8   c-4.4,1.8-5.8,1.8-9.6,0.5c1.2-1.7,2.7-4.1,3.9-5.7c-2.4-0.7-3.7-1-10.8,0.7c0.5-1,1.2-2.4,1.9-3.3c-0.3-0.5-0.7-1.1-1.1-1.6   c0.3-0.5,0.8-1.1,1.1-1.5c-1.3-0.1-3.1,0-4.3,0.2c0.9-1,2.2-2.4,3.1-3.4c-2.9,1.6-2.9,1.6-10.7,5.4c0.2-0.6,0.6-1.3,0.8-1.9   c-3.1,0.4-3.1,0.4-10.3,4.4c-0.5-0.3-1.2-0.7-1.7-0.9c-1.8,0.5-1.8,0.5-13.6,9.4c0.2-0.7,0.5-1.3,0.9-1.9c-1.9,1.7-2.1,1.8-4.6,4.1   c0.7-0.4,1.6-0.9,2.2-1.3c0.5,0.2,1.3,0.6,1.9,0.8c2.4-1.5,5.2-1.1,7.8-2c-0.7,1-1.5,2.4-2.2,3.5c2.2-1.7,2.2-1.7,5.4-3.1   c1.4-0.1,1.6,0.2,1.8,0.5c-0.6,1.9-0.6,1.9-6.2,8.3c1.5,0.5,3.4,1.2,4.9,1.6c-52.9,48.2-52.9,48.2-57.9,55.6   c-1.8,10.2-1.8,10.2-4.9,15.5c-1.9,4-3.1,7.1-4.3,10.2c-0.6,1.7-1.2,3.4-1.8,5.2c-0.7,3.7-0.8,7.5-2,11.1c0.6,0,1.4,0,2,0   c0-0.1,0.3-12.8,7-20c1.3-4.9,1.3-4.9,3.3-8.1c-5.8,23.8-5.8,23.8-6,27.1c-1.5,6.2-2.8,11.3-4,16.5c0.6,5.7,1.4,13.5,2.4,19.2   c31.1,19.6,45.5,56.9,45.6,57.3c-21.3,33.9-3.4,43.8,8.4,50.4c0.8,3.1,1.6,6.1,2.5,9c4.8,5,20.1,18.9,33.1,22.6   c4.6,23.7,18.1,41.9,40,53.9c1.2,1.4,2.5,2.6,3.8,3.8c7.8,2.4,14.9,6.8,22.9,8.7c0.4-0.7,0.8-1.6,1.2-2.3c-0.4-0.4-0.7-0.9-1.1-1.3   l-4.1-2c-3.3-5-3.3-5-2.6-8.7l-5.4-1.2c4.8-1.2,6-1.4,10.7-1.3c-0.6-1-1.6-2.4-2.4-3.3c4.3-1.9,9.2-2.5,13.1-5.6   c1,0.3,2.3,0.7,3.3,0.9l3.4-2.6c0.1-9.1,0.1-9.1-1.5-14.3c24.5-14.9,24.5-14.9,20.6-23.8C412.5,418.8,412.5,418.8,413.1,409.6    M392,169.1l0.1-1c-3,1.1-2.8-3.7-2.6-6.2c-2.7-1.9-3.5-3.2-3.4-5.3c-0.8-0.1-2.1-0.5-4.3-1.5c-2.6-1.1-3.6-1.2-4.5-0.9   c-0.5-1.1-1.2-2.4-1.7-3.5c-1.3,0.9-2.2,1.5-4.4,3.2c-0.5-0.2-0.3-1.2,0.6-3.9l-0.2,0.1c-3.9,1.4-3.9,1.4-6.2,3.3   c0.2,0.1,0.2,0.1,2,3.8c3.4-1.6,9.8,0.6,10.3,4.4c-3.7,4.5-5.6,7.1-8.1,11.4c-2.6-0.1-5.1,0.8-7.7,1.2c2.7,0.2,5.6,0.5,8.5,0.6   l3.4,6.4c6.3-12.6,10.4-10,14.7-5.7C389.5,174.3,391.5,172.2,392,169.1 M348.5,150.6l1.1-0.9c-4-0.7-4.5-2-4.8-2.9   c-0.8-0.1-1.7,0.2-4.2,1.2c-1-0.8-2.2-1.9-3.2-2.8c0-2.6,0-2.6-1.7-4.1l0,0.1c-0.2,1.9-2.2,2.9-2.4,4.8c-0.1,1.2,0.5,2.5,0.2,3.7   c-0.2,0.7-0.5,1.3-0.9,2c-0.2,0-2.7,0.4-4.4,1.1C331,157.7,338.8,158.4,348.5,150.6 M335.9,141.1L335.9,141.1l-0.3-0.3L335.9,141.1    M363.2,154.6l0.1,0.4c1-2.5,1-5.2,0.7-9l-0.1,0.3C363.4,147.4,362.5,149.2,363.2,154.6 M356.1,142.6l0.5-0.6   c-1.2,0.9-2.7,1.4-4,2.1c0-1.2-0.5-2.4-0.3-3.6c0.2-1.1,0.5-1.7,1.3-2.7l-0.4,0c-1.2-0.2-2.5,0-3.6-0.2c-0.7-0.2-0.9-0.5-0.9-0.7   c-3.4,1.3-4.8,1.9-5.9,2.6l0.2,0.9c6,0.1,6,0.1,6.3,0.2c-1.2,0.7-2.9,1.7-4.1,2.4c1.9,0.5,2.6,2.8,4.6,3.3c1.1,0.2,2.1,0.4,3.2,0.5   C354,145.2,355,143.9,356.1,142.6 M364.9,141.5l0.2-0.2c0-1,0.1-2.3,0.1-3.3l-0.2,0.1c-2,0.9-3.2,1.6-3.2,1.6l-0.1,0.3   c-0.6,1.3-1.4,2.6-2.2,3.9C360,144,361.7,144.2,364.9,141.5 M366.8,131.8c0.8-0.6,0.8-0.6,1.3-3.7l-0.5,0.3   c-7.1,4.2-7.1,4.2-8.6,4.8c3.5-0.6,3.5-0.6,5.2-1.3c-0.1,0.8-0.1,1.2,0.1,1.7C364.5,133.5,364.9,133.3,366.8,131.8 M401.6,131   c0.5-1.4-1.2-2.7-1.6-2.6c-0.4,0.1-0.7,0.3-1.4,0.9c-1.4-0.7-4.1-0.1-6.7,0.6c-2.4,0.6-3.7,0.8-4.7,0.8c0.3,1.7,0.8,2.8,3,5.9   c-7.3,5.8-9.7,7.4-14.6,7.3c0.8,0.1,1.6,0.5,3.8,1.7c6.4-2.1,7.1-2.3,8.8-4.2c1,0.1,1.6,0.4,2.9,1.4c1-1.3,2.3-3.1,3.3-4.4   C398.1,138.1,399.8,136.3,401.6,131 M437.7,128.5l0.1-0.3c-3.6,3.1-3.9,3.4-5.7,2.2c-0.9-0.9-1.8-1.8-2.7-2.6   c1.3-0.3,2.6-0.5,3.8-0.8l-4.3-2.2l-0.3,0.1l-1.2,0.3l-0.3,0.1c-1,0.3-1.5,1.4-2.5,1.7c-0.8,0.3-1.7-0.6-2.6,0.1   c-0.9,0.8-0.9,2.1-0.7,3.8c-1.5-0.2-2.5-1.7-4.1-1.5c-2,0.2-3.7,0-3.7,0c-0.5-0.2-2-0.6-5.1-2.1c-0.2,1.4-0.4,3.3-0.5,4.7   c-0.7-0.1-1.2-0.2-3-1.8c-2.4,4-4.5,6.7-8.6,11.1c1.7,0.1,5.3,1.4,5.4,1.4c2.5,2,4.6,5.9,6.6,8.3c0.2,1.6,0.1,2.9-0.5,5.5   c1,1.1,2.2,2.7,3.2,3.9c-1.3,3-2.5,5.8-3.7,8.1l-0.6,1.2c-0.3,3.5,2.2,6.3,2.6,9.5c3,0.8,4.6,4.3,8.1,4.2c2.7-0.1,2.6-2.2,2.3-4.6   c4.2-0.8,19.1-9.3,28.8-22c-1.6,0.1-6.1-2.3-6.2-3.5c0.8-0.9,1.5-1.1,6.9-0.9c-1.6-2.3-3.2-4.4-4.8-6.6c0.9-0.1,1.9,0.1,4.2,0.9   c-0.4-1.2-0.9-2.7-1.3-3.8C440.2,136.5,437.7,128.6,437.7,128.5"/>
	<radialGradient id="SVGID_3_" cx="533.0009" cy="279.9619" r="129.2117" gradientUnits="userSpaceOnUse">
		<stop offset="0" style="stop-color:#000000"/>
		<stop offset="8.715600e-002" style="stop-color:#000000"/>
		<stop offset="1" style="stop-color:#000000"/>
	</radialGradient>
	<path class="st4" d="M495.6,193.1l-3.7-7.9l-0.2,0.1c-1.7,0.7-3.1,3.5-4,5.6l0.3,0.5l0.3,0.5l0.3,0.5l0.3,0.5l0.3,0.5l0.3,0.5   l0.3,0.5l0.3,0.5l0.3,0.5l0.3,0.5l0.3,0.5l0.3,0.5l0.3,0.5l0.3,0.5l0.3,0.5l0.3,0.5C492.4,195.5,493.3,193.8,495.6,193.1    M507.2,156.7l-0.2-0.3l0.1,0.3c0.3,1.2,0.2,2.5,0.5,3.8l0.4,0.4c2.9,3,3.4,4.2,3.5,4.5C511.4,165,510,161.2,507.2,156.7    M572.8,198.4l-0.1-0.1l0.3,0.5c-2.5-4.3-5.3-8.4-8.1-12.5c-0.8-1-2.9-3.4-3.4-3.4l0,0.2c-3.2-4.2-3.2-4.2-8.1-12   c2.7,3.2,3.6,4.4,4.1,5.3l-0.1-0.3c0.3,0.2,0.3,0.2,2.4,3l2.3,2.8C565.3,186.9,569.7,193.3,572.8,198.4 M511.3,194.4l-5.1,3   c1-2.8,3.3-4.8,4.9-7.2L511.3,194.4 M497.1,123.9c-10-5.7-20.7-10.2-31.9-13.6l0,0c16.8,6.7,16.8,6.7,18.7,8l1.3-0.3   c3.5,1.7,5.8,2.8,11,5.9c-4.6-1.7-9.2-3.6-13.9-5.1c5.4,2.3,5.4,2.3,7.5,3.8c-0.6,0.2-1.3,0.4-1.9,0.6c1.5,0.7,3.6,1.6,5.1,2.3   c3.3,3.3,6,7.2,9.3,10.5c2.3,2.5,5.5,5.9,7.7,8.5c-3.1-1.1-7.3-2.7-10.4-3.8l-1.7-1.5c1.7,0.1,4,0.3,5.7,0.5l-3.9-3.4l-4.6-1.9   c-2.9,1.8-3.3,1.7-12.3-1.5c-1.1,1-2.5,2-4.1,3c8.1,9.4,8.9,10.4,13.1,18c-1.2,5.3-1.2,5.3,8.8,13.4c0.5-0.3,1.1-0.8,1.6-1.2   c-0.8-2.9-0.8-2.9-3.9-6.9l0.5,0.4l1,0.9l0.9,0.9l0.9,0.9l0.9,0.9l0.9,0.9l0.8,0.9l0.9,0.9c0.5,0,1.2,0,1.8,0   c1.7-4.9,1.7-4.9-9.7-19.8l3.3,0.2l5.6,7.8c1.3,0.2,3.1,0.2,4.4-0.1c1.6-1.1,1.9-1.5,2.3-1.8c9.9,19.2,9.9,19.2,10,23.7   c-2.3-0.7-2.3-0.7-5.3-2.2c-0.3,1.1-0.7,2.6-1.1,3.7c-2.3-0.8-2.8-1-8.3-7.1c-0.3,1.8-0.3,1.8,5,8.2c-0.4,1-1.3,2.3-2.2,3   c0,1.9,0,4.5,0.1,6.4c-6.9-2.5-6.9-2.5-10.7-4.7c-0.9-0.8-1.2-1.1-1.4-1.4l-0.7-1l-0.7-1l-0.7-1l-0.7-0.9l-0.7-1l-0.7-1l-0.7-0.9   c-1,0.6-2.3,1.6-3.1,2.5c0.4,1.5,1,4,9.7,9.7c0.1,2.2,0.2,5.2,0.3,7.4c0.9,0.8,2,1.9,2.8,2.8l-0.4,1.4c3.1,0.4,3.1,0.4,12,14   c-1.4,0.8-2.7,1.5-17.2,2.4c2.5,5.4,5.7,10.5,8.3,15.9l-1.4,1.3l0.3,0.8l0.3,0.8l0.3,0.7l0.3,0.7l0.2,0.7l0.2,0.7l0.3,0.7l0.2,0.7   c13.1-4.6,13.6-4.8,20.2-7.7c-1.3-3.1-2.7-6.1-4.1-9.1c4.5-4.2,2.1-11,6-15.4c1.5-0.6,2.8-1.1,4.2-1.8c10,10.3,10.4,10.7,15.9,8.7   c1.7,2.6,1.7,2.6,3.9,5.4c-1.7-3.2-2.8-5.3-9.4-14.4c-0.2,0.5-0.5,1.2-0.8,1.6c-1.9-0.6-1.9-0.6-5-3.1c0.4-0.5,1-1.1,1.3-1.6   c3.9,0.6,3.9,0.6,23.6,16.5c0.9-6.6-5.4-9.8-6.9-15.3c1.9-2.7,1.7-3,0.9-4.8c-2.9-4-4.9-8.5-7.4-12.8c1.1-0.1,2.6-0.1,3.7,0.1   c0-0.6,0.1-1.3,0.1-1.8c-0.7-0.6-1.5-1.4-2.2-2l0.1-0.2l0.1-0.2l0.1-0.2l0.1-0.2l0.1-0.2l0.1-0.2l0.1-0.2l0.1-0.2   c7.9,4.9,7.9,4.9,12.4,11.7c-2.5-1.1-2.8-1.4-4.3-3.3c-0.3,0.2-0.4,0.7-0.6,1.3c-0.9,5.8-1,6-0.6,14.4c0.9,1.4,1.8,2.8,2.7,4.2   c2,2.2,2,2.2,6.7,6c-0.3-2.7-0.7-6.3-1-9c0.5-0.3,1.1-0.6,1.6-0.9c1.2,2.4,2.9,5.7,4.1,8.1c5.2,8.6,5.8,9.7,6.3,14.9l-0.8,0.7   c-0.1,0.1-0.1,0.1-12,5c0.2,2.7,0,3.7-1.4,8.3c-6-0.8-17-12.5-17.1-12.6c-4.8,2.7-14.7,8.4-29,12.3l1.2,1.3   c-0.1,0.6-0.1,1.3-0.1,1.9l-0.6,0.1l-0.6,0.1l-0.6,0.1l-0.6,0.2l-0.6,0.2l-0.6,0.2l-0.6,0.2l-0.7,0.1c-6,15.3-11.1,28.5-27.7,52.2   l5.3,4.4c3,21.4,3,21.4-0.2,28.4c26.8,23.9,26.8,23.9,32.6,25.6c1.1-1.8,2.6-4.1,3.7-5.9c8.3-1.9,16-4.1,23-6.3   c21.6-6.8,22.4-7.1,18.7,38.9c-1.3,4.5-2.7,9-4.3,13.4c-10.9,17.5-17.1,37.6-29.9,54c3-2.1,7.5-5.3,19.7-20.3   c11.8-16,12.6-17,18.7-27.7c9.4-18.3,9.7-19.1,13.9-30.4c6.4-20,6.6-20.8,8.8-32.6c3-20.8,3.2-22.5,3.3-36.5   c-0.4-8.9-1.1-20.7-2.1-29.6l-0.1-0.7c0-0.2-5.9-22.9-9.8-31c0.2-0.5,0.2-1,0.3-1.4c4.4,6.9,6.3,15.7,7.5,21.5   c-1.9-7.9-4.7-18.3-7.1-26c-7.6-19.3-7.8-20-13.5-30.6c-10.4-17.6-10.8-18.2-18.3-27.9c-12.7-15.1-13.4-16-22.8-24.8   C523.5,141.6,514.4,133.8,497.1,123.9"/>
</g>
<path id="SVGID_x5F_4_x5F_" class="st5" d="M666.7,306c0,149.5-121.2,270.7-270.7,270.7c-149.5,0-270.7-121.2-270.7-270.7  S246.5,35.3,396,35.3C545.5,35.3,666.7,156.5,666.7,306z"/>
<text><textPath xlink:href="#SVGID_x5F_4_x5F_" startOffset="2199.9922%">
<tspan class="st0" style="font-family:'Helvetica-Bold'; font-size:53px;">INTERNATIONAL SURF</tspan></textPath>
</text>
<path id="SVGID_x5F_5_x5F_" class="st5" d="M666.7,306c0,149.5-121.2,270.7-270.7,270.7c-149.5,0-270.7-121.2-270.7-270.7  S246.5,35.3,396,35.3C545.5,35.3,666.7,156.5,666.7,306z"/>
<text><textPath xlink:href="#SVGID_x5F_5_x5F_" startOffset="3333.4331%">
<tspan class="st0" style="font-family:'Helvetica-Bold'; font-size:53px;">LIFESAVING ASSOCIATION</tspan></textPath>
</text>
<g>
	<g id="XMLID_2_">
		<polygon class="st0" points="522.6,262.9 522.6,348.3 437.5,348.3 437.5,433.5 352.1,433.5 352.1,348.3 266.9,348.3 266.9,262.9     352.1,262.9 352.1,177.8 437.5,177.8 437.5,262.9   "/>
	</g>
	<g>
		<linearGradient id="SVGID_6_" gradientUnits="userSpaceOnUse" x1="305.7207" y1="255.229" x2="305.7207" y2="262.7344">
			<stop offset="0" style="stop-color:#ED1C24"/>
			<stop offset="1" style="stop-color:#ED1C24"/>
		</linearGradient>
		<rect x="259.6" y="255.2" class="st6" width="92.2" height="7.5"/>

			<linearGradient id="SVGID_7_" gradientUnits="userSpaceOnUse" x1="-538.1725" y1="832.6733" x2="-538.1725" y2="840.1782" gradientTransform="matrix(0 -1 1 0 -488.353 -321.8574)">
			<stop offset="0" style="stop-color:#ED1C24"/>
			<stop offset="1" style="stop-color:#ED1C24"/>
		</linearGradient>
		<rect x="344.3" y="170.2" class="st7" width="7.5" height="92.2"/>
		<linearGradient id="SVGID_8_" gradientUnits="userSpaceOnUse" x1="394.7578" y1="170.2104" x2="394.7578" y2="177.7158">
			<stop offset="0" style="stop-color:#ED1C24"/>
			<stop offset="1" style="stop-color:#ED1C24"/>
		</linearGradient>
		<rect x="344.3" y="170.2" class="st8" width="100.9" height="7.5"/>

			<linearGradient id="SVGID_9_" gradientUnits="userSpaceOnUse" x1="-538.1725" y1="926.0444" x2="-538.1725" y2="933.5483" gradientTransform="matrix(0 -1 1 0 -488.353 -321.8574)">
			<stop offset="0" style="stop-color:#ED1C24"/>
			<stop offset="1" style="stop-color:#ED1C24"/>
		</linearGradient>
		<rect x="437.7" y="170.2" class="st9" width="7.5" height="92.2"/>
		<linearGradient id="SVGID_10_" gradientUnits="userSpaceOnUse" x1="483.7959" y1="255.229" x2="483.7959" y2="262.7344">
			<stop offset="0" style="stop-color:#ED1C24"/>
			<stop offset="1" style="stop-color:#ED1C24"/>
		</linearGradient>
		<rect x="437.7" y="255.2" class="st10" width="92.2" height="7.5"/>

			<linearGradient id="SVGID_11_" gradientUnits="userSpaceOnUse" x1="-626.4436" y1="1010.7475" x2="-626.4436" y2="1018.2534" gradientTransform="matrix(0 -1 1 0 -488.353 -321.8574)">
			<stop offset="0" style="stop-color:#ED1C24"/>
			<stop offset="1" style="stop-color:#ED1C24"/>
		</linearGradient>
		<rect x="522.4" y="255.2" class="st11" width="7.5" height="98.7"/>
		<linearGradient id="SVGID_12_" gradientUnits="userSpaceOnUse" x1="483.7959" y1="348.8398" x2="483.7959" y2="356.3437">
			<stop offset="0" style="stop-color:#ED1C24"/>
			<stop offset="1" style="stop-color:#ED1C24"/>
		</linearGradient>
		<rect x="437.7" y="348.8" class="st12" width="92.2" height="7.5"/>

			<linearGradient id="SVGID_13_" gradientUnits="userSpaceOnUse" x1="-716.8017" y1="926.0444" x2="-716.8017" y2="933.5483" gradientTransform="matrix(0 -1 1 0 -488.353 -321.8574)">
			<stop offset="0" style="stop-color:#ED1C24"/>
			<stop offset="1" style="stop-color:#ED1C24"/>
		</linearGradient>
		<rect x="437.7" y="348.8" class="st13" width="7.5" height="92.2"/>
		<linearGradient id="SVGID_14_" gradientUnits="userSpaceOnUse" x1="394.7578" y1="433.543" x2="394.7578" y2="441.0488">
			<stop offset="0" style="stop-color:#ED1C24"/>
			<stop offset="1" style="stop-color:#ED1C24"/>
		</linearGradient>
		<rect x="344.3" y="433.5" class="st14" width="100.9" height="7.5"/>

			<linearGradient id="SVGID_15_" gradientUnits="userSpaceOnUse" x1="-716.8017" y1="832.6733" x2="-716.8017" y2="840.1782" gradientTransform="matrix(0 -1 1 0 -488.353 -321.8574)">
			<stop offset="0" style="stop-color:#ED1C24"/>
			<stop offset="1" style="stop-color:#ED1C24"/>
		</linearGradient>
		<rect x="344.3" y="348.8" class="st15" width="7.5" height="92.2"/>
		<linearGradient id="SVGID_16_" gradientUnits="userSpaceOnUse" x1="305.7207" y1="348.8398" x2="305.7207" y2="356.3437">
			<stop offset="0" style="stop-color:#ED1C24"/>
			<stop offset="1" style="stop-color:#ED1C24"/>
		</linearGradient>
		<rect x="259.6" y="348.8" class="st16" width="92.2" height="7.5"/>

			<linearGradient id="SVGID_17_" gradientUnits="userSpaceOnUse" x1="-630.4871" y1="747.9692" x2="-630.4871" y2="755.4741" gradientTransform="matrix(0 -1 1 0 -488.353 -321.8574)">
			<stop offset="0" style="stop-color:#ED1C24"/>
			<stop offset="1" style="stop-color:#ED1C24"/>
		</linearGradient>
		<rect x="259.6" y="262.5" class="st17" width="7.5" height="92.2"/>
	</g>
</g>
<g>
	<linearGradient id="SVGID_18_" gradientUnits="userSpaceOnUse" x1="297.1655" y1="269.9033" x2="297.1655" y2="341.3574">
		<stop offset="0" style="stop-color:#ED1C24"/>
		<stop offset="1" style="stop-color:#ED1C24"/>
	</linearGradient>
	<rect x="286.1" y="269.9" class="st18" width="22.1" height="71.5"/>
	<linearGradient id="SVGID_19_" gradientUnits="userSpaceOnUse" x1="342.6494" y1="268.6855" x2="342.6494" y2="342.5742">
		<stop offset="0" style="stop-color:#ED1C24"/>
		<stop offset="1" style="stop-color:#ED1C24"/>
	</linearGradient>
	<path class="st19" d="M363.1,299.6c-4.2-2.1-11.1-4.2-20.7-6.3c-3.9-0.8-6.4-1.7-7.4-2.6c-1.1-0.9-1.6-1.9-1.6-3.1   c0-1.6,0.7-2.9,1.9-4c1.3-1.1,3.2-1.6,5.8-1.6c3.1,0,5.6,0.7,7.3,2.2c1.8,1.5,2.9,3.8,3.5,7l20.8-1.2c-0.9-7.4-3.8-12.8-8.6-16.2   c-4.8-3.4-11.8-5.1-20.9-5.1c-7.4,0-13.3,0.9-17.6,2.8c-4.3,1.9-7.5,4.4-9.6,7.7c-2.1,3.3-3.2,6.7-3.2,10.4   c0,5.6,2.1,10.2,6.2,13.8c4.1,3.6,11,6.5,20.7,8.7c5.9,1.3,9.7,2.7,11.3,4.1c1.6,1.5,2.4,3.1,2.4,5c0,2-0.9,3.7-2.6,5.1   c-1.7,1.5-4.1,2.2-7.3,2.2c-4.2,0-7.5-1.4-9.7-4.3c-1.4-1.8-2.3-4.4-2.8-7.8l-21,1.3c0.6,7.2,3.3,13.2,7.9,17.8   c4.7,4.7,13.1,7,25.2,7c6.9,0,12.7-1,17.2-3c4.5-2,8.1-4.9,10.6-8.8c2.5-3.9,3.8-8.1,3.8-12.7c0-3.9-1-7.4-2.9-10.6   C370.3,304.4,367.3,301.7,363.1,299.6z"/>
	<linearGradient id="SVGID_20_" gradientUnits="userSpaceOnUse" x1="439.8017" y1="269.9033" x2="439.8017" y2="341.3574">
		<stop offset="0" style="stop-color:#ED1C24"/>
		<stop offset="1" style="stop-color:#ED1C24"/>
	</linearGradient>
	<path class="st20" d="M476.6,269.9h-24.1l-20.2,53.9h-34v-53.9h-22.1v71.5h49.4h7.1h15.4l3.5-11.8h25.1l3.6,11.8h23.1L476.6,269.9z    M456.4,314.1l7.8-25.7l7.9,25.7H456.4z"/>
</g>
</svg>
